Automation of ARK Data Collection and Analysis
…
#get the agents lined up by their start times and find their frequency on that day
agent_by_date <- Clean_Data %>%
  group_by(Prescription.start) %>%
  count(Name) 
#then find their cumulative frequency over time
agent_by_date <- agent_by_date %>%
  group_by(Name) %>%
  mutate(Cum_n = cumsum(n)) 

#then select only the most commonly prescribed abx
pop_agent_by_date <- filter(agent_by_date, Name %in% pop_abx$Name) %>%
  print()

## # A tibble: 1,141 x 4
## # Groups:   Name [10]
##    Prescription.start  Name                 n Cum_n
##    <dttm>              <chr>            <int> <int>
##  1 2021-12-06 13:30:00 Piperacillin         1     1
##  2 2021-12-06 13:41:00 Clarithromycin       1     1
##  3 2021-12-08 12:15:00 Benzylpenicillin     1     1
##  4 2021-12-08 12:16:00 Clarithromycin       1     2
##  5 2021-12-09 10:57:00 Amoxicillin          1     1
##  6 2021-12-10 13:09:00 Levofloxacin         1     1
##  7 2021-12-10 14:06:00 Amoxicillin          1     2
##  8 2021-12-10 14:07:00 Clarithromycin       1     3
##  9 2021-12-10 14:55:00 Metronidazole        1     1
## 10 2021-12-10 15:03:00 Flucloxacillin       1     1
## # ... with 1,131 more rows

agent_by_reason <- Clean_Data %>%
  group_by(Reason.given) %>%
  count(Name)

agent_by_reason <- filter(agent_by_reason,Reason.given %in% pop_indic$Reason.given) %>%
  print()

## # A tibble: 73 x 3
## # Groups:   Reason.given [10]
##    Reason.given         Name                 n
##    <chr>                <chr>            <int>
##  1 Aspiration Pneumonia Amoxicillin          1
##  2 Aspiration Pneumonia Aztreonam            1
##  3 Aspiration Pneumonia Benzylpenicillin     5
##  4 Aspiration Pneumonia Metronidazole       11
##  5 Aspiration Pneumonia Piperacillin         2
##  6 Cellulitis           Amoxicillin          2
##  7 Cellulitis           Benzylpenicillin     4
##  8 Cellulitis           Cefotaxime           1
##  9 Cellulitis           Clarithromycin       5
## 10 Cellulitis           Clindamycin          1
## # ... with 63 more rows
…
